{
    "name": "Coupon",
    "alias": "coupon",
    "description": "",
    "keywords": [],
    "active": 1,
    "order": 31,
    "providers": [
        "Modules\\Coupon\\Providers\\CouponServiceProvider"
    ],
    "aliases": {},
    "files": [],
    "requires": []
}
