{
    "name": "Product",
    "alias": "product",
    "description": "",
    "keywords": [],
    "active": 1,
    "order": 20,
    "providers": [
        "Modules\\Product\\Providers\\ProductServiceProvider"
    ],
    "aliases": {},
    "files": [],
    "requires": []
}
