{
    "name": "Payment",
    "alias": "payment",
    "description": "",
    "keywords": [],
    "active": 0,
    "order": 32,
    "providers": [
        "Modules\\Payment\\Providers\\PaymentServiceProvider"
    ],
    "aliases": [],
    "files": [],
    "requires": []
}
