<?xml version="1.0" encoding="utf-8"?>
<!-- Generator: Adobe Illustrator 23.0.3, SVG Export Plug-In . SVG Version: 6.00 Build 0)  -->
<svg version="1.1" id="Capa_1" xmlns="http://www.w3.org/2000/svg" xmlns:xlink="http://www.w3.org/1999/xlink" x="0px" y="0px"
	 viewBox="0 0 512 358" style="enable-background:new 0 0 512 358;" xml:space="preserve">
<style type="text/css">
	.st0{fill:#111111;}
</style>
<path class="st0" d="M471.1,0.3H40.9C18.3,0.3,0,18.6,0,41.1v275.8c0,22.5,18.3,40.9,40.9,40.9h430.3c22.5,0,40.9-18.3,40.9-40.9
	V41.1C512,18.6,493.7,0.3,471.1,0.3z M495.7,316.9c0,13.5-11,24.5-24.5,24.5H40.9c-13.5,0-24.5-11-24.5-24.5V41.1
	c0-13.5,11-24.5,24.5-24.5h430.3c13.5,0,24.5,11,24.5,24.5V316.9z"/>
<path class="st0" d="M122.9,52.3c-33.3,0-60.4,27.1-60.4,60.4S89.6,173,122.9,173s60.4-27.1,60.4-60.4S156.2,52.3,122.9,52.3z
	 M122.9,158.7c-25.4,0-46.1-20.7-46.1-46.1s20.7-46.1,46.1-46.1S169,87.3,169,112.7S148.3,158.7,122.9,158.7z"/>
<path class="st0" d="M258,52.3c-33.3,0-60.4,27.1-60.4,60.4S224.7,173,258,173s60.4-27.1,60.4-60.4S291.3,52.3,258,52.3z M258,158.7
	c-25.4,0-46.1-20.7-46.1-46.1s20.7-46.1,46.1-46.1c25.4,0,46.1,20.7,46.1,46.1S283.4,158.7,258,158.7z"/>
<path class="st0" d="M393.1,52.3c-33.3,0-60.4,27.1-60.4,60.4s27.1,60.4,60.4,60.4c33.3,0,60.4-27.1,60.4-60.4
	S426.4,52.3,393.1,52.3z M393.1,158.7c-25.4,0-46.1-20.7-46.1-46.1s20.7-46.1,46.1-46.1c25.4,0,46.1,20.7,46.1,46.1
	S418.5,158.7,393.1,158.7z"/>
<path class="st0" d="M258,187.3c-33.3,0-60.4,27.1-60.4,60.4s27.1,60.4,60.4,60.4s60.4-27.1,60.4-60.4S291.3,187.3,258,187.3z
	 M258,293.8c-25.4,0-46.1-20.7-46.1-46.1s20.7-46.1,46.1-46.1c25.4,0,46.1,20.7,46.1,46.1S283.4,293.8,258,293.8z"/>
<path class="st0" d="M393.1,187.3c-33.3,0-60.4,27.1-60.4,60.4s27.1,60.4,60.4,60.4c33.3,0,60.4-27.1,60.4-60.4
	S426.4,187.3,393.1,187.3z M393.1,293.8c-25.4,0-46.1-20.7-46.1-46.1s20.7-46.1,46.1-46.1c25.4,0,46.1,20.7,46.1,46.1
	S418.5,293.8,393.1,293.8z"/>
<path class="st0" d="M165.7,215.4c-3.4,1.9-4.7,6.3-2.7,9.7c3.9,6.9,5.9,14.7,5.9,22.6c0,25.4-20.7,46.1-46.1,46.1
	s-46.1-20.7-46.1-46.1s20.7-46.1,46.1-46.1c7.9,0,15.7,2.1,22.6,5.9c3.4,1.9,7.8,0.7,9.7-2.7c1.9-3.4,0.7-7.8-2.7-9.7
	c-9-5.1-19.3-7.8-29.6-7.8c-33.3,0-60.4,27.1-60.4,60.4s27.1,60.4,60.4,60.4s60.4-27.1,60.4-60.4c0-10.4-2.7-20.6-7.8-29.6
	C173.5,214.6,169.2,213.4,165.7,215.4z"/>
</svg>
