<?xml version="1.0"?>
<svg xmlns="http://www.w3.org/2000/svg" xmlns:xlink="http://www.w3.org/1999/xlink" version="1.1" id="Layer_1" x="0px" y="0px" viewBox="0 0 512.062 512.062" style="enable-background:new 0 0 512.062 512.062;" xml:space="preserve" width="512px" height="512px"><g><g>
	<g>
		<g>
			<path d="M435.231,59.796h-8.533c-4.719,0-8.533,3.823-8.533,8.533s3.814,8.533,8.533,8.533h8.533     c4.719,0,8.533-3.823,8.533-8.533S439.95,59.796,435.231,59.796z" data-original="#000000" class="active-path" data-old_color="#000000" fill="#111111"/>
			<path d="M433.576,119.742l-8.388-1.63c-4.617-0.853-9.097,2.133-10.001,6.758c-0.896,4.625,2.125,9.105,6.75,10.001l8.388,1.63     c0.546,0.102,1.092,0.154,1.63,0.154c4.011,0,7.578-2.833,8.371-6.912C441.222,125.118,438.201,120.638,433.576,119.742z" data-original="#000000" class="active-path" data-old_color="#000000" fill="#111111"/>
			<path d="M196.298,324.329h-85.333c-4.71,0-8.533,3.823-8.533,8.533s3.823,8.533,8.533,8.533h85.333     c4.71,0,8.533-3.823,8.533-8.533S201.008,324.329,196.298,324.329z" data-original="#000000" class="active-path" data-old_color="#000000" fill="#111111"/>
			<path d="M153.631,401.129c0,4.71,3.823,8.533,8.533,8.533h51.2c4.71,0,8.533-3.823,8.533-8.533c0-4.71-3.823-8.533-8.533-8.533     h-51.2C157.454,392.596,153.631,396.419,153.631,401.129z" data-original="#000000" class="active-path" data-old_color="#000000" fill="#111111"/>
			<path d="M305.618,188.871l-15.71-62.882c-0.956-3.797-4.361-6.46-8.277-6.46h-76.8v-17.067h8.533c4.71,0,8.533-3.823,8.533-8.533     v-51.2c0-4.71-3.823-8.533-8.533-8.533h-34.133c-4.71,0-8.533,3.823-8.533,8.533v51.2c0,4.71,3.823,8.533,8.533,8.533h8.533     v17.067h-68.267c-3.558,0-6.75,2.21-7.996,5.555l-12.8,34.33c-1.647,4.412,0.597,9.336,5.018,10.974     c4.386,1.655,9.335-0.597,10.974-5.009l10.726-28.783h149.547l15.454,61.807c0.06,0.239,0.222,0.435,0.299,0.666     c0.137,0.418,0.316,0.785,0.512,1.161c0.29,0.572,0.631,1.075,1.041,1.553c0.256,0.307,0.495,0.589,0.794,0.853     c0.503,0.452,1.067,0.802,1.673,1.126c0.299,0.162,0.572,0.358,0.896,0.478c0.964,0.384,1.988,0.623,3.055,0.623h0.009     c4.71,0,8.533,3.831,8.533,8.533v273.067c0,4.702-3.823,8.533-8.533,8.533h-204.8c-4.702,0-8.533-3.831-8.533-8.533V213.396     c0-4.702,3.831-8.533,8.533-8.533h170.667c4.719,0,8.533-3.823,8.533-8.533s-3.814-8.533-8.533-8.533H93.898     c-14.114,0-25.6,11.486-25.6,25.6v273.067c0,14.114,11.486,25.6,25.6,25.6h204.8c14.114,0,25.6-11.486,25.6-25.6V213.396     C324.298,201.697,316.362,191.909,305.618,188.871z M187.765,51.262h17.067v34.133h-17.067V51.262z" data-original="#000000" class="active-path" data-old_color="#000000" fill="#111111"/>
			<path d="M266.049,87.188l-8.388-1.63c-4.642-0.922-9.105,2.108-10.001,6.741c-0.905,4.625,2.116,9.105,6.741,10.001l8.38,1.638     c0.555,0.102,1.101,0.154,1.638,0.154c4.002,0,7.578-2.825,8.371-6.895C273.687,92.564,270.674,88.084,266.049,87.188z" data-original="#000000" class="active-path" data-old_color="#000000" fill="#111111"/>
			<path d="M256.031,59.796c-4.71,0-8.533,3.823-8.533,8.533s3.823,8.533,8.533,8.533h8.533c4.719,0,8.533-3.823,8.533-8.533     s-3.814-8.533-8.533-8.533H256.031z" data-original="#000000" class="active-path" data-old_color="#000000" fill="#111111"/>
			<path d="M298.698,59.796c-4.719,0-8.533,3.823-8.533,8.533s3.814,8.533,8.533,8.533h8.533c4.719,0,8.533-3.823,8.533-8.533     s-3.814-8.533-8.533-8.533H298.698z" data-original="#000000" class="active-path" data-old_color="#000000" fill="#111111"/>
			<path d="M307.931,95.329l-8.38-1.63c-4.634-0.939-9.114,2.108-10.01,6.741c-0.904,4.625,2.116,9.105,6.741,10.001l8.38,1.638     c0.555,0.111,1.101,0.154,1.647,0.154c3.994,0,7.569-2.825,8.363-6.895C315.577,100.705,312.556,96.225,307.931,95.329z" data-original="#000000" class="active-path" data-old_color="#000000" fill="#111111"/>
			<path d="M292.673,43.122c0.538,0,1.092-0.051,1.638-0.162l8.371-1.63c4.625-0.896,7.637-5.376,6.741-10.001     c-0.905-4.625-5.393-7.663-10.01-6.75l-8.371,1.63c-4.625,0.905-7.637,5.385-6.733,10.01     C285.096,40.297,288.671,43.122,292.673,43.122z" data-original="#000000" class="active-path" data-old_color="#000000" fill="#111111"/>
			<path d="M250.792,51.262c0.538,0,1.084-0.051,1.638-0.162l8.363-1.63c4.634-0.896,7.646-5.376,6.75-10.001     c-0.905-4.634-5.402-7.671-10.01-6.741l-8.363,1.63c-4.634,0.896-7.646,5.376-6.75,10.001     C243.214,48.438,246.79,51.262,250.792,51.262z" data-original="#000000" class="active-path" data-old_color="#000000" fill="#111111"/>
			<path d="M391.694,111.61l-8.38-1.63c-4.625-0.939-9.105,2.108-10.01,6.741c-0.896,4.625,2.116,9.105,6.741,10.01l8.388,1.63     c0.546,0.111,1.101,0.162,1.638,0.162c4.002,0,7.578-2.825,8.371-6.904C399.34,116.995,396.319,112.515,391.694,111.61z" data-original="#000000" class="active-path" data-old_color="#000000" fill="#111111"/>
			<path d="M378.084,26.686l8.363-1.63c4.625-0.905,7.646-5.385,6.741-10.01c-0.896-4.634-5.41-7.671-10.01-6.741l-8.363,1.63     c-4.625,0.896-7.646,5.376-6.741,10.001c0.794,4.079,4.369,6.903,8.363,6.903C376.983,26.84,377.529,26.789,378.084,26.686z" data-original="#000000" class="active-path" data-old_color="#000000" fill="#111111"/>
			<path d="M349.898,59.796h-8.533c-4.719,0-8.533,3.823-8.533,8.533s3.814,8.533,8.533,8.533h8.533     c4.719,0,8.533-3.823,8.533-8.533S354.617,59.796,349.898,59.796z" data-original="#000000" class="active-path" data-old_color="#000000" fill="#111111"/>
			<path d="M110.965,375.529h68.267c4.71,0,8.533-3.823,8.533-8.533s-3.823-8.533-8.533-8.533h-68.267     c-4.71,0-8.533,3.823-8.533,8.533S106.254,375.529,110.965,375.529z" data-original="#000000" class="active-path" data-old_color="#000000" fill="#111111"/>
			<path d="M419.965,18.537l8.363-1.621c4.625-0.905,7.646-5.385,6.741-10.01c-0.896-4.625-5.41-7.663-10.001-6.741l-8.371,1.63     c-4.625,0.896-7.637,5.376-6.741,10.001c0.794,4.079,4.369,6.903,8.371,6.903C418.864,18.699,419.419,18.648,419.965,18.537z" data-original="#000000" class="active-path" data-old_color="#000000" fill="#111111"/>
			<path d="M392.565,59.796h-8.533c-4.719,0-8.533,3.823-8.533,8.533s3.814,8.533,8.533,8.533h8.533     c4.719,0,8.533-3.823,8.533-8.533S397.284,59.796,392.565,59.796z" data-original="#000000" class="active-path" data-old_color="#000000" fill="#111111"/>
			<path d="M110.965,409.662h17.067c4.71,0,8.533-3.823,8.533-8.533c0-4.71-3.823-8.533-8.533-8.533h-17.067     c-4.71,0-8.533,3.823-8.533,8.533C102.431,405.839,106.254,409.662,110.965,409.662z" data-original="#000000" class="active-path" data-old_color="#000000" fill="#111111"/>
			<path d="M110.965,460.862h153.6c4.719,0,8.533-3.823,8.533-8.533V281.662c0-4.71-3.814-8.533-8.533-8.533h-153.6     c-4.71,0-8.533,3.823-8.533,8.533c0,4.71,3.823,8.533,8.533,8.533h145.067v153.6H110.965c-4.71,0-8.533,3.823-8.533,8.533     S106.254,460.862,110.965,460.862z" data-original="#000000" class="active-path" data-old_color="#000000" fill="#111111"/>
			<path d="M336.202,34.827l8.363-1.63c4.625-0.905,7.646-5.385,6.741-10.01c-0.896-4.634-5.427-7.671-10.01-6.741l-8.363,1.63     c-4.625,0.896-7.646,5.376-6.741,10.001c0.794,4.079,4.361,6.903,8.363,6.903C335.101,34.981,335.647,34.93,336.202,34.827z" data-original="#000000" class="active-path" data-old_color="#000000" fill="#111111"/>
			<path d="M349.813,103.469l-8.38-1.63c-4.634-0.939-9.114,2.108-10.01,6.741c-0.905,4.625,2.116,9.105,6.741,10.01l8.38,1.63     c0.555,0.111,1.101,0.162,1.647,0.162c4.002,0,7.578-2.825,8.363-6.904C357.458,108.854,354.438,104.374,349.813,103.469z" data-original="#000000" class="active-path" data-old_color="#000000" fill="#111111"/>
		</g>
	</g>
</g></g> </svg>
